Meet R
…
.exercise-title[Exercise]

.exercise-body[Can you find some variables that already have an object inside? What do they store?]

---

# Some variables already store data

```r
mpg
```

```
## # A tibble: 234 x 11
##    manufacturer model    displ  year   cyl trans   drv     cty   hwy fl    class
##    <chr>        <chr>    <dbl> <int> <int> <chr>   <chr> <int> <int> <chr> <chr>
##  1 audi         a4         1.8  1999     4 auto(l… f        18    29 p     comp…
##  2 audi         a4         1.8  1999     4 manual… f        21    29 p     comp…
##  3 audi         a4         2    2008     4 manual… f        20    31 p     comp…
##  4 audi         a4         2    2008     4 auto(a… f        21    30 p     comp…
##  5 audi         a4         2.8  1999     6 auto(l… f        16    26 p     comp…
##  6 audi         a4         2.8  1999     6 manual… f        18    26 p     comp…
##  7 audi         a4         3.1  2008     6 auto(a… f        18    27 p     comp…
##  8 audi         a4 quat…   1.8  1999     4 manual… 4        18    26 p     comp…
##  9 audi         a4 quat…   1.8  1999     4 auto(l… 4        16    25 p     comp…
## 10 audi         a4 quat…   2    2008     4 manual… 4        20    28 p     comp…
## # … with 224 more rows
```

---

# Some variables already store data

```r
starwars
```

```
## # A tibble: 87 x 13
##    name  height  mass hair_color skin_color eye_color birth_year gender
##    <chr>  <int> <dbl> <chr>      <chr>      <chr>          <dbl> <chr> 
##  1 Luke…    172    77 blond      fair       blue            19   male  
##  2 C-3PO    167    75 <NA>       gold       yellow         112   <NA>  
##  3 R2-D2     96    32 <NA>       white, bl… red             33   <NA>  
##  4 Dart…    202   136 none       white      yellow          41.9 male  
##  5 Leia…    150    49 brown      light      brown           19   female
##  6 Owen…    178   120 brown, gr… light      blue            52   male  
##  7 Beru…    165    75 brown      light      blue            47   female
##  8 R5-D4     97    32 <NA>       white, red red             NA   <NA>  
##  9 Bigg…    183    84 black      light      brown           24   male  
## 10 Obi-…    182    77 auburn, w… fair       blue-gray       57   male  
## # … with 77 more rows, and 5 more variables: homeworld <chr>, species <chr>,
## #   films <list>, vehicles <list>, starships <list>
```

---

# Some variables already store data

```r
storms
```

```
## # A tibble: 10,010 x 13
##    name   year month   day  hour   lat  long status category  wind pressure
##    <chr> <dbl> <dbl> <int> <dbl> <dbl> <dbl> <chr>  <ord>    <int>    <int>
##  1 Amy    1975     6    27     0  27.5 -79   tropi… -1          25     1013
##  2 Amy    1975     6    27     6  28.5 -79   tropi… -1          25     1013
##  3 Amy    1975     6    27    12  29.5 -79   tropi… -1          25     1013
##  4 Amy    1975     6    27    18  30.5 -79   tropi… -1          25     1013
##  5 Amy    1975     6    28     0  31.5 -78.8 tropi… -1          25     1012
##  6 Amy    1975     6    28     6  32.4 -78.7 tropi… -1          25     1012
##  7 Amy    1975     6    28    12  33.3 -78   tropi… -1          25     1011
##  8 Amy    1975     6    28    18  34   -77   tropi… -1          30     1006
##  9 Amy    1975     6    29     0  34.4 -75.8 tropi… 0           35     1004
## 10 Amy    1975     6    29     6  34   -74.8 tropi… 0           40     1002
## # … with 10,000 more rows, and 2 more variables: ts_diameter <dbl>,
## #   hu_diameter <dbl>
```
…
---

# And they are instantly ready for use

We read the data with `read_csv()` into an R ´tibble` object, and assigned them to the variable launches`

```r
launches
```

```
## # A tibble: 5,726 x 11
##    tag       JD launch_date launch_year type  variant mission agency state_code
##    <chr>  <dbl> <date>            <dbl> <chr> <chr>   <chr>   <chr>  <chr>     
##  1 1967… 2.44e6 1967-06-29         1967 Thor… <NA>    Secor … US     US        
##  2 1967… 2.44e6 1967-08-23         1967 Thor… <NA>    DAPP 3… US     US        
##  3 1967… 2.44e6 1967-10-11         1967 Thor… <NA>    DAPP 4… US     US        
##  4 1968… 2.44e6 1968-05-23         1968 Thor… <NA>    DAPP 5… US     US        
##  5 1968… 2.44e6 1968-10-23         1968 Thor… <NA>    DAPP 6… US     US        
##  6 1969… 2.44e6 1969-07-23         1969 Thor… <NA>    DAPP 7… US     US        
##  7 1970… 2.44e6 1970-02-11         1970 Thor… <NA>    DAPP B… US     US        
##  8 1970… 2.44e6 1970-09-03         1970 Thor… <NA>    DAPP B… US     US        
##  9 1971… 2.44e6 1971-02-17         1971 Thor… <NA>    DAPP B… US     US        
## 10 1971… 2.44e6 1971-06-08         1971 Thor… <NA>    P70-1   US     US        
## # … with 5,716 more rows, and 2 more variables: category <chr>,
## #   agency_type <chr>
```
…
