The Tidyverse, Part 1
…
---

count: false
.pull-left-reveal[

```r
*squirrels
```
]
.pull-right-reveal[

```
## # A tibble: 3,023 x 36
##     long   lat unique_squirrel… hectare shift   date
##    <dbl> <dbl> <chr>            <chr>   <chr>  <dbl>
##  1 -74.0  40.8 37F-PM-1014-03   37F     PM    1.01e7
##  2 -74.0  40.8 37E-PM-1006-03   37E     PM    1.01e7
##  3 -74.0  40.8 2E-AM-1010-03    02E     AM    1.01e7
##  4 -74.0  40.8 5D-PM-1018-05    05D     PM    1.02e7
##  5 -74.0  40.8 39B-AM-1018-01   39B     AM    1.02e7
##  6 -74.0  40.8 33H-AM-1019-02   33H     AM    1.02e7
##  7 -74.0  40.8 6G-PM-1020-02    06G     PM    1.02e7
##  8 -74.0  40.8 35C-PM-1013-03   35C     PM    1.01e7
##  9 -74.0  40.8 7B-AM-1008-09    07B     AM    1.01e7
## 10 -74.0  40.8 32E-PM-1017-14   32E     PM    1.02e7
## # … with 3,013 more rows, and 30 more variables:
## #   hectare_squirrel_number <dbl>, age <chr>,
## #   primary_fur_color <chr>,
## #   highlight_fur_color <chr>,
## #   combination_of_primary_and_highlight_color <chr>,
## #   color_notes <chr>, location <chr>,
## #   above_ground_sighter_measurement <chr>,
## #   specific_location <chr>, running <lgl>,
## #   chasing <lgl>, climbing <lgl>, eating <lgl>,
…
```r
squirrels %>%  
* select(lat_long,
*        primary_fur_color,
*        location)
```
]
.pull-right-reveal[

```
## # A tibble: 3,023 x 3
##    lat_long                 primary_fur_color location 
##    <chr>                    <chr>             <chr>    
##  1 POINT (-73.956134493786… <NA>              <NA>     
##  2 POINT (-73.957043771769… Gray              Ground P…
##  3 POINT (-73.976831175100… Cinnamon          Above Gr…
##  4 POINT (-73.975724983414… Gray              Above Gr…
##  5 POINT (-73.959312669571… <NA>              Above Gr…
##  6 POINT (-73.956570038616… Gray              Ground P…
##  7 POINT (-73.971973558247… Gray              Ground P…
##  8 POINT (-73.960260992081… Gray              Ground P…
##  9 POINT (-73.977071858675… Gray              Ground P…
## 10 POINT (-73.959641390394… Gray              <NA>     
## # … with 3,013 more rows
```
…
```r
squirrels %>%  
  select(lat_long,  
         primary_fur_color,  
         location) %>%  
* filter(primary_fur_color ==
*          "Cinnamon")
```
]
.pull-right-reveal[

```
## # A tibble: 392 x 3
##    lat_long                 primary_fur_color location 
##    <chr>                    <chr>             <chr>    
##  1 POINT (-73.976831175100… Cinnamon          Above Gr…
##  2 POINT (-73.968361351622… Cinnamon          <NA>     
##  3 POINT (-73.976860363067… Cinnamon          Ground P…
##  4 POINT (-73.964986601603… Cinnamon          Ground P…
##  5 POINT (-73.967062855816… Cinnamon          Ground P…
##  6 POINT (-73.966243899668… Cinnamon          Ground P…
##  7 POINT (-73.974563003849… Cinnamon          Ground P…
##  8 POINT (-73.968381325559… Cinnamon          Ground P…
##  9 POINT (-73.969424032750… Cinnamon          <NA>     
## 10 POINT (-73.961070559286… Cinnamon          Ground P…
## # … with 382 more rows
```
…
```r
squirrels %>%  
  select(lat_long,  
         primary_fur_color,  
         location) %>%  
  filter(primary_fur_color ==  
           "Cinnamon") %>%  
* drop_na(location)
```
]
.pull-right-reveal[

```
## # A tibble: 382 x 3
##    lat_long                 primary_fur_color location 
##    <chr>                    <chr>             <chr>    
##  1 POINT (-73.976831175100… Cinnamon          Above Gr…
##  2 POINT (-73.976860363067… Cinnamon          Ground P…
##  3 POINT (-73.964986601603… Cinnamon          Ground P…
##  4 POINT (-73.967062855816… Cinnamon          Ground P…
##  5 POINT (-73.966243899668… Cinnamon          Ground P…
##  6 POINT (-73.974563003849… Cinnamon          Ground P…
##  7 POINT (-73.968381325559… Cinnamon          Ground P…
##  8 POINT (-73.961070559286… Cinnamon          Ground P…
##  9 POINT (-73.961708874992… Cinnamon          Ground P…
## 10 POINT (-73.954145346581… Cinnamon          Ground P…
## # … with 372 more rows
```
…
]]

---

count: false
.pull-left-reveal[

```r
*squirrels
```
]
.pull-right-reveal[

```
## # A tibble: 3,023 x 36
##     long   lat unique_squirrel… hectare shift   date
##    <dbl> <dbl> <chr>            <chr>   <chr>  <dbl>
##  1 -74.0  40.8 37F-PM-1014-03   37F     PM    1.01e7
##  2 -74.0  40.8 37E-PM-1006-03   37E     PM    1.01e7
##  3 -74.0  40.8 2E-AM-1010-03    02E     AM    1.01e7
##  4 -74.0  40.8 5D-PM-1018-05    05D     PM    1.02e7
##  5 -74.0  40.8 39B-AM-1018-01   39B     AM    1.02e7
##  6 -74.0  40.8 33H-AM-1019-02   33H     AM    1.02e7
##  7 -74.0  40.8 6G-PM-1020-02    06G     PM    1.02e7
##  8 -74.0  40.8 35C-PM-1013-03   35C     PM    1.01e7
##  9 -74.0  40.8 7B-AM-1008-09    07B     AM    1.01e7
## 10 -74.0  40.8 32E-PM-1017-14   32E     PM    1.02e7
## # … with 3,013 more rows, and 30 more variables:
## #   hectare_squirrel_number <dbl>, age <chr>,
## #   primary_fur_color <chr>,
## #   highlight_fur_color <chr>,
## #   combination_of_primary_and_highlight_color <chr>,
## #   color_notes <chr>, location <chr>,
## #   above_ground_sighter_measurement <chr>,
## #   specific_location <chr>, running <lgl>,
## #   chasing <lgl>, climbing <lgl>, eating <lgl>,
…
```r
squirrels %>%  
* select(primary_fur_color,
*        location,
*        eating, age)
```
]
.pull-right-reveal[

```
## # A tibble: 3,023 x 4
##    primary_fur_color location     eating age     
##    <chr>             <chr>        <lgl>  <chr>   
##  1 <NA>              <NA>         FALSE  <NA>    
##  2 Gray              Ground Plane FALSE  Adult   
##  3 Cinnamon          Above Ground FALSE  Adult   
##  4 Gray              Above Ground FALSE  Juvenile
##  5 <NA>              Above Ground FALSE  <NA>    
##  6 Gray              Ground Plane FALSE  Juvenile
##  7 Gray              Ground Plane FALSE  Adult   
##  8 Gray              Ground Plane FALSE  <NA>    
##  9 Gray              Ground Plane FALSE  Adult   
## 10 Gray              <NA>         TRUE   Adult   
## # … with 3,013 more rows
```
…
```r
squirrels %>%  
  select(primary_fur_color,  
         location,  
         eating, age) %>%  
* filter(primary_fur_color ==
*          "Gray")
```
]
.pull-right-reveal[

```
## # A tibble: 2,473 x 4
##    primary_fur_color location     eating age     
##    <chr>             <chr>        <lgl>  <chr>   
##  1 Gray              Ground Plane FALSE  Adult   
##  2 Gray              Above Ground FALSE  Juvenile
##  3 Gray              Ground Plane FALSE  Juvenile
##  4 Gray              Ground Plane FALSE  Adult   
##  5 Gray              Ground Plane FALSE  <NA>    
##  6 Gray              Ground Plane FALSE  Adult   
##  7 Gray              <NA>         TRUE   Adult   
##  8 Gray              Above Ground FALSE  Adult   
##  9 Gray              Ground Plane FALSE  Adult   
## 10 Gray              Ground Plane FALSE  Adult   
## # … with 2,463 more rows
```
…
```r
squirrels %>%  
  select(primary_fur_color,  
         location,  
         eating, age) %>%  
  filter(primary_fur_color ==  
           "Gray") %>%  
* filter(location ==
*          "Above Ground")
```
]
.pull-right-reveal[

```
## # A tibble: 685 x 4
##    primary_fur_color location     eating age     
##    <chr>             <chr>        <lgl>  <chr>   
##  1 Gray              Above Ground FALSE  Juvenile
##  2 Gray              Above Ground FALSE  Adult   
##  3 Gray              Above Ground FALSE  Adult   
##  4 Gray              Above Ground FALSE  Adult   
##  5 Gray              Above Ground TRUE   Adult   
##  6 Gray              Above Ground FALSE  Adult   
##  7 Gray              Above Ground FALSE  Adult   
##  8 Gray              Above Ground FALSE  Juvenile
##  9 Gray              Above Ground TRUE   Adult   
## 10 Gray              Above Ground FALSE  Adult   
## # … with 675 more rows
```
…
```
## # A tibble: 128 x 4
##    primary_fur_color location     eating age  
##    <chr>             <chr>        <lgl>  <chr>
##  1 Gray              Above Ground TRUE   Adult
##  2 Gray              Above Ground TRUE   Adult
##  3 Gray              Above Ground TRUE   Adult
##  4 Gray              Above Ground TRUE   Adult
##  5 Gray              Above Ground TRUE   <NA> 
##  6 Gray              Above Ground TRUE   Adult
##  7 Gray              Above Ground TRUE   Adult
##  8 Gray              Above Ground TRUE   Adult
##  9 Gray              Above Ground TRUE   Adult
## 10 Gray              Above Ground TRUE   Adult
## # … with 118 more rows
```
…
