The Tidyverse, Part 2
…
.big[Could we learn more turning them into visual representation?]

---

count: false
.pull-left-reveal[

```r
*squirrels_tidy
```
]
.pull-right-reveal[

```
## # A tibble: 3,023 x 36
##     long   lat unique_squirrel… hectare shift
##    <dbl> <dbl> <chr>            <chr>   <chr>
##  1 -74.0  40.8 37F-PM-1014-03   37F     PM   
##  2 -74.0  40.8 37E-PM-1006-03   37E     PM   
##  3 -74.0  40.8 2E-AM-1010-03    02E     AM   
##  4 -74.0  40.8 5D-PM-1018-05    05D     PM   
##  5 -74.0  40.8 39B-AM-1018-01   39B     AM   
##  6 -74.0  40.8 33H-AM-1019-02   33H     AM   
##  7 -74.0  40.8 6G-PM-1020-02    06G     PM   
##  8 -74.0  40.8 35C-PM-1013-03   35C     PM   
##  9 -74.0  40.8 7B-AM-1008-09    07B     AM   
## 10 -74.0  40.8 32E-PM-1017-14   32E     PM   
## # … with 3,013 more rows, and 31 more variables:
## #   date <date>, hectare_squirrel_number <dbl>,
## #   age <chr>, primary_fur_color <chr>,
## #   highlight_fur_color <chr>,
## #   combination_of_primary_and_highlight_color <chr>,
## #   color_notes <chr>, location <chr>, height <dbl>,
## #   specific_location <chr>, running <lgl>,
## #   chasing <lgl>, climbing <lgl>, eating <lgl>,
## #   foraging <lgl>, other_activities <chr>,
…
```r
squirrels_tidy %>%  
* drop_na(height)
```
]
.pull-right-reveal[

```
## # A tibble: 2,909 x 36
##     long   lat unique_squirrel… hectare shift
##    <dbl> <dbl> <chr>            <chr>   <chr>
##  1 -74.0  40.8 37E-PM-1006-03   37E     PM   
##  2 -74.0  40.8 2E-AM-1010-03    02E     AM   
##  3 -74.0  40.8 5D-PM-1018-05    05D     PM   
##  4 -74.0  40.8 33H-AM-1019-02   33H     AM   
##  5 -74.0  40.8 6G-PM-1020-02    06G     PM   
##  6 -74.0  40.8 35C-PM-1013-03   35C     PM   
##  7 -74.0  40.8 7B-AM-1008-09    07B     AM   
##  8 -74.0  40.8 36H-AM-1010-02   36H     AM   
##  9 -74.0  40.8 33F-AM-1008-02   33F     AM   
## 10 -74.0  40.8 21C-PM-1006-01   21C     PM   
## # … with 2,899 more rows, and 31 more variables:
## #   date <date>, hectare_squirrel_number <dbl>,
## #   age <chr>, primary_fur_color <chr>,
## #   highlight_fur_color <chr>,
## #   combination_of_primary_and_highlight_color <chr>,
## #   color_notes <chr>, location <chr>, height <dbl>,
## #   specific_location <chr>, running <lgl>,
## #   chasing <lgl>, climbing <lgl>, eating <lgl>,
## #   foraging <lgl>, other_activities <chr>,
…
---

count: false
.pull-left-reveal[

```r
*squirrels_tidy
```
]
.pull-right-reveal[

```
## # A tibble: 3,023 x 36
##     long   lat unique_squirrel… hectare shift
##    <dbl> <dbl> <chr>            <chr>   <chr>
##  1 -74.0  40.8 37F-PM-1014-03   37F     PM   
##  2 -74.0  40.8 37E-PM-1006-03   37E     PM   
##  3 -74.0  40.8 2E-AM-1010-03    02E     AM   
##  4 -74.0  40.8 5D-PM-1018-05    05D     PM   
##  5 -74.0  40.8 39B-AM-1018-01   39B     AM   
##  6 -74.0  40.8 33H-AM-1019-02   33H     AM   
##  7 -74.0  40.8 6G-PM-1020-02    06G     PM   
##  8 -74.0  40.8 35C-PM-1013-03   35C     PM   
##  9 -74.0  40.8 7B-AM-1008-09    07B     AM   
## 10 -74.0  40.8 32E-PM-1017-14   32E     PM   
## # … with 3,013 more rows, and 31 more variables:
## #   date <date>, hectare_squirrel_number <dbl>,
## #   age <chr>, primary_fur_color <chr>,
## #   highlight_fur_color <chr>,
## #   combination_of_primary_and_highlight_color <chr>,
## #   color_notes <chr>, location <chr>, height <dbl>,
## #   specific_location <chr>, running <lgl>,
## #   chasing <lgl>, climbing <lgl>, eating <lgl>,
## #   foraging <lgl>, other_activities <chr>,
…
```r
squirrels_tidy %>%  
* drop_na(height)
```
]
.pull-right-reveal[

```
## # A tibble: 2,909 x 36
##     long   lat unique_squirrel… hectare shift
##    <dbl> <dbl> <chr>            <chr>   <chr>
##  1 -74.0  40.8 37E-PM-1006-03   37E     PM   
##  2 -74.0  40.8 2E-AM-1010-03    02E     AM   
##  3 -74.0  40.8 5D-PM-1018-05    05D     PM   
##  4 -74.0  40.8 33H-AM-1019-02   33H     AM   
##  5 -74.0  40.8 6G-PM-1020-02    06G     PM   
##  6 -74.0  40.8 35C-PM-1013-03   35C     PM   
##  7 -74.0  40.8 7B-AM-1008-09    07B     AM   
##  8 -74.0  40.8 36H-AM-1010-02   36H     AM   
##  9 -74.0  40.8 33F-AM-1008-02   33F     AM   
## 10 -74.0  40.8 21C-PM-1006-01   21C     PM   
## # … with 2,899 more rows, and 31 more variables:
## #   date <date>, hectare_squirrel_number <dbl>,
## #   age <chr>, primary_fur_color <chr>,
## #   highlight_fur_color <chr>,
## #   combination_of_primary_and_highlight_color <chr>,
## #   color_notes <chr>, location <chr>, height <dbl>,
## #   specific_location <chr>, running <lgl>,
## #   chasing <lgl>, climbing <lgl>, eating <lgl>,
## #   foraging <lgl>, other_activities <chr>,
…
```r
squirrels_tidy %>%  
  drop_na(height) %>%  
* filter(height > 0)
```
]
.pull-right-reveal[

```
## # A tibble: 792 x 36
##     long   lat unique_squirrel… hectare shift
##    <dbl> <dbl> <chr>            <chr>   <chr>
##  1 -74.0  40.8 2E-AM-1010-03    02E     AM   
##  2 -74.0  40.8 5D-PM-1018-05    05D     PM   
##  3 -74.0  40.8 11D-AM-1010-03   11D     AM   
##  4 -74.0  40.8 7H-AM-1006-05    07H     AM   
##  5 -74.0  40.8 16C-PM-1018-03   16C     PM   
##  6 -74.0  40.8 17F-AM-1007-07   17F     AM   
##  7 -74.0  40.8 18A-PM-1018-01   18A     PM   
##  8 -74.0  40.8 31H-PM-1008-02   31H     PM   
##  9 -74.0  40.8 8H-AM-1017-06    08H     AM   
## 10 -74.0  40.8 34F-AM-1007-01   34F     AM   
## # … with 782 more rows, and 31 more variables:
## #   date <date>, hectare_squirrel_number <dbl>,
## #   age <chr>, primary_fur_color <chr>,
## #   highlight_fur_color <chr>,
## #   combination_of_primary_and_highlight_color <chr>,
## #   color_notes <chr>, location <chr>, height <dbl>,
## #   specific_location <chr>, running <lgl>,
## #   chasing <lgl>, climbing <lgl>, eating <lgl>,
## #   foraging <lgl>, other_activities <chr>,
…
---

count: false
.pull-left-reveal[

```r
*squirrels_tidy
```
]
.pull-right-reveal[

```
## # A tibble: 3,023 x 36
##     long   lat unique_squirrel… hectare shift
##    <dbl> <dbl> <chr>            <chr>   <chr>
##  1 -74.0  40.8 37F-PM-1014-03   37F     PM   
##  2 -74.0  40.8 37E-PM-1006-03   37E     PM   
##  3 -74.0  40.8 2E-AM-1010-03    02E     AM   
##  4 -74.0  40.8 5D-PM-1018-05    05D     PM   
##  5 -74.0  40.8 39B-AM-1018-01   39B     AM   
##  6 -74.0  40.8 33H-AM-1019-02   33H     AM   
##  7 -74.0  40.8 6G-PM-1020-02    06G     PM   
##  8 -74.0  40.8 35C-PM-1013-03   35C     PM   
##  9 -74.0  40.8 7B-AM-1008-09    07B     AM   
## 10 -74.0  40.8 32E-PM-1017-14   32E     PM   
## # … with 3,013 more rows, and 31 more variables:
## #   date <date>, hectare_squirrel_number <dbl>,
## #   age <chr>, primary_fur_color <chr>,
## #   highlight_fur_color <chr>,
## #   combination_of_primary_and_highlight_color <chr>,
## #   color_notes <chr>, location <chr>, height <dbl>,
## #   specific_location <chr>, running <lgl>,
## #   chasing <lgl>, climbing <lgl>, eating <lgl>,
## #   foraging <lgl>, other_activities <chr>,
…
```r
squirrels_tidy %>%  
* drop_na(height)
```
]
.pull-right-reveal[

```
## # A tibble: 2,909 x 36
##     long   lat unique_squirrel… hectare shift
##    <dbl> <dbl> <chr>            <chr>   <chr>
##  1 -74.0  40.8 37E-PM-1006-03   37E     PM   
##  2 -74.0  40.8 2E-AM-1010-03    02E     AM   
##  3 -74.0  40.8 5D-PM-1018-05    05D     PM   
##  4 -74.0  40.8 33H-AM-1019-02   33H     AM   
##  5 -74.0  40.8 6G-PM-1020-02    06G     PM   
##  6 -74.0  40.8 35C-PM-1013-03   35C     PM   
##  7 -74.0  40.8 7B-AM-1008-09    07B     AM   
##  8 -74.0  40.8 36H-AM-1010-02   36H     AM   
##  9 -74.0  40.8 33F-AM-1008-02   33F     AM   
## 10 -74.0  40.8 21C-PM-1006-01   21C     PM   
## # … with 2,899 more rows, and 31 more variables:
## #   date <date>, hectare_squirrel_number <dbl>,
## #   age <chr>, primary_fur_color <chr>,
## #   highlight_fur_color <chr>,
## #   combination_of_primary_and_highlight_color <chr>,
## #   color_notes <chr>, location <chr>, height <dbl>,
## #   specific_location <chr>, running <lgl>,
## #   chasing <lgl>, climbing <lgl>, eating <lgl>,
## #   foraging <lgl>, other_activities <chr>,
…
```r
squirrels_tidy %>%  
  drop_na(height) %>%  
* filter(height > 0)
```
]
.pull-right-reveal[

```
## # A tibble: 792 x 36
##     long   lat unique_squirrel… hectare shift
##    <dbl> <dbl> <chr>            <chr>   <chr>
##  1 -74.0  40.8 2E-AM-1010-03    02E     AM   
##  2 -74.0  40.8 5D-PM-1018-05    05D     PM   
##  3 -74.0  40.8 11D-AM-1010-03   11D     AM   
##  4 -74.0  40.8 7H-AM-1006-05    07H     AM   
##  5 -74.0  40.8 16C-PM-1018-03   16C     PM   
##  6 -74.0  40.8 17F-AM-1007-07   17F     AM   
##  7 -74.0  40.8 18A-PM-1018-01   18A     PM   
##  8 -74.0  40.8 31H-PM-1008-02   31H     PM   
##  9 -74.0  40.8 8H-AM-1017-06    08H     AM   
## 10 -74.0  40.8 34F-AM-1007-01   34F     AM   
## # … with 782 more rows, and 31 more variables:
## #   date <date>, hectare_squirrel_number <dbl>,
## #   age <chr>, primary_fur_color <chr>,
## #   highlight_fur_color <chr>,
## #   combination_of_primary_and_highlight_color <chr>,
## #   color_notes <chr>, location <chr>, height <dbl>,
## #   specific_location <chr>, running <lgl>,
## #   chasing <lgl>, climbing <lgl>, eating <lgl>,
## #   foraging <lgl>, other_activities <chr>,
…
]

---

count: false
.pull-left-reveal[

```r
*squirrels_tidy
```
]
.pull-right-reveal[

```
## # A tibble: 3,023 x 36
##     long   lat unique_squirrel… hectare shift
##    <dbl> <dbl> <chr>            <chr>   <chr>
##  1 -74.0  40.8 37F-PM-1014-03   37F     PM   
##  2 -74.0  40.8 37E-PM-1006-03   37E     PM   
##  3 -74.0  40.8 2E-AM-1010-03    02E     AM   
##  4 -74.0  40.8 5D-PM-1018-05    05D     PM   
##  5 -74.0  40.8 39B-AM-1018-01   39B     AM   
##  6 -74.0  40.8 33H-AM-1019-02   33H     AM   
##  7 -74.0  40.8 6G-PM-1020-02    06G     PM   
##  8 -74.0  40.8 35C-PM-1013-03   35C     PM   
##  9 -74.0  40.8 7B-AM-1008-09    07B     AM   
## 10 -74.0  40.8 32E-PM-1017-14   32E     PM   
## # … with 3,013 more rows, and 31 more variables:
## #   date <date>, hectare_squirrel_number <dbl>,
## #   age <chr>, primary_fur_color <chr>,
## #   highlight_fur_color <chr>,
## #   combination_of_primary_and_highlight_color <chr>,
## #   color_notes <chr>, location <chr>, height <dbl>,
## #   specific_location <chr>, running <lgl>,
## #   chasing <lgl>, climbing <lgl>, eating <lgl>,
## #   foraging <lgl>, other_activities <chr>,
…
