The Tidyverse, Part 3
…
---

# Separate columns

```r
squirrels_tidy <- 
  squirrels_tidy %>% 
  separate(hectare, c("hectare_lat", "hectare_lon"), sep = 2)

squirrels_tidy %>% select(hectare_lat, hectare_lon)
```

```
## # A tibble: 3,023 x 2
##    hectare_lat hectare_lon
##    <chr>       <chr>      
##  1 37          F          
##  2 37          E          
##  3 02          E          
##  4 05          D          
##  5 39          B          
##  6 33          H          
##  7 06          G          
##  8 35          C          
##  9 07          B          
## 10 32          E          
## # … with 3,013 more rows
```
…
