The Tidyverse, Part 4
…
```r
dat_mil %>% print(n = 6)
```

```
## # A tibble: 4,992 x 4
##   stazione_id data       inquinante valore
##         <dbl> <date>     <chr>       <dbl>
## 1           1 2019-01-03 NO2          NA  
## 2           3 2019-01-03 NO2          51  
## 3           3 2019-01-03 CO_8h         1.2
## 4           4 2019-01-03 PM10         29  
## 5           4 2019-01-03 NO2         139  
## 6           4 2019-01-03 CO_8h         1.3
## # … with 4,986 more rows
```
…
Use a visualization to learn when were the records taken?

]

---

```r
dat_mil %>% 
  group_by(stazione_id, inquinante) %>% 
  count()
```

```
## # A tibble: 26 x 3
## # Groups:   stazione_id, inquinante [26]
##    stazione_id inquinante     n
##          <dbl> <chr>      <int>
##  1           1 NO2          192
##  2           2 C6H6         192
##  3           2 NO2          192
##  4           2 O3           192
##  5           2 PM10         192
##  6           2 PM25         192
##  7           2 SO2          192
##  8           3 CO_8h        192
##  9           3 NO2          192
## 10           4 C6H6         192
## # … with 16 more rows
```
…
]

---

count: false
.pull-left-reveal[

```r
*dat_mil
```
]
.pull-right-reveal[

```
## # A tibble: 4,992 x 4
##    stazione_id data       inquinante valore
##          <dbl> <date>     <chr>       <dbl>
##  1           1 2019-01-03 NO2          NA  
##  2           3 2019-01-03 NO2          51  
##  3           3 2019-01-03 CO_8h         1.2
##  4           4 2019-01-03 PM10         29  
##  5           4 2019-01-03 NO2         139  
##  6           4 2019-01-03 CO_8h         1.3
##  7           4 2019-01-03 C6H6          1.5
##  8           5 2019-01-03 NO2          NA  
##  9           5 2019-01-03 O3           NA  
## 10           2 2019-01-03 SO2           2.5
## # … with 4,982 more rows
```
…
---

count: false
.pull-left-reveal[

```r
*dat_mil_all
```
]
.pull-right-reveal[

```
## # A tibble: 10,602 x 4
##    stazione_id data       inquinante valore
##          <dbl> <date>     <chr>       <dbl>
##  1           1 2019-01-03 C6H6           NA
##  2           1 2019-01-03 CO_8h          NA
##  3           1 2019-01-03 NO2            NA
##  4           1 2019-01-03 O3             NA
##  5           1 2019-01-03 PM10           NA
##  6           1 2019-01-03 PM25           NA
##  7           1 2019-01-03 SO2            NA
##  8           1 2019-01-04 C6H6           NA
##  9           1 2019-01-04 CO_8h          NA
## 10           1 2019-01-04 NO2            NA
## # … with 10,592 more rows
```
…
```r
dat_mil_all %>%  
* pivot_wider(
*   names_from = inquinante,
*   values_from = valore
* )
```
]
.pull-right-reveal[

```
## # A tibble: 1,496 x 9
##    stazione_id data        C6H6 CO_8h   NO2    O3  PM10
##          <dbl> <date>     <dbl> <dbl> <dbl> <dbl> <dbl>
##  1           1 2019-01-03    NA    NA    NA    NA    NA
##  2           1 2019-01-04    NA    NA    NA    NA    NA
##  3           1 2019-01-07    NA    NA    NA    NA    NA
##  4           1 2019-01-08    NA    NA    NA    NA    NA
##  5           1 2019-01-09    NA    NA    NA    NA    NA
##  6           1 2019-01-10    NA    NA    NA    NA    NA
##  7           1 2019-01-11    NA    NA    NA    NA    NA
##  8           1 2019-01-14    NA    NA    NA    NA    NA
##  9           1 2019-01-15    NA    NA    NA    NA    NA
## 10           1 2019-01-17    NA    NA    NA    NA    NA
## 11           1 2019-01-18    NA    NA    NA    NA    NA
## 12           1 2019-01-21    NA    NA    NA    NA    NA
## 13           1 2019-01-22    NA    NA    NA    NA    NA
## 14           1 2019-01-23    NA    NA    NA    NA    NA
## 15           1 2019-01-25    NA    NA    NA    NA    NA
## 16           1 2019-01-28    NA    NA    NA    NA    NA
## 17           1 2019-01-29    NA    NA    NA    NA    NA
## 18           1 2019-01-30    NA    NA    NA    NA    NA
## 19           1 2019-02-01    NA    NA    NA    NA    NA
## 20           1 2019-02-04    NA    NA    NA    NA    NA
## # … with 1,476 more rows, and 2 more variables:
## #   PM25 <dbl>, SO2 <dbl>
```
…
---

count: false
.pull-left-reveal[

```r
* # Pivot back
*dat_mil_wide
```
]
.pull-right-reveal[

```
## # A tibble: 1,496 x 9
##    stazione_id data        C6H6 CO_8h   NO2    O3  PM10
##          <dbl> <date>     <dbl> <dbl> <dbl> <dbl> <dbl>
##  1           1 2019-01-03    NA    NA    NA    NA    NA
##  2           1 2019-01-04    NA    NA    NA    NA    NA
##  3           1 2019-01-07    NA    NA    NA    NA    NA
##  4           1 2019-01-08    NA    NA    NA    NA    NA
##  5           1 2019-01-09    NA    NA    NA    NA    NA
##  6           1 2019-01-10    NA    NA    NA    NA    NA
##  7           1 2019-01-11    NA    NA    NA    NA    NA
##  8           1 2019-01-14    NA    NA    NA    NA    NA
##  9           1 2019-01-15    NA    NA    NA    NA    NA
## 10           1 2019-01-17    NA    NA    NA    NA    NA
## 11           1 2019-01-18    NA    NA    NA    NA    NA
## 12           1 2019-01-21    NA    NA    NA    NA    NA
## 13           1 2019-01-22    NA    NA    NA    NA    NA
## 14           1 2019-01-23    NA    NA    NA    NA    NA
## 15           1 2019-01-25    NA    NA    NA    NA    NA
## 16           1 2019-01-28    NA    NA    NA    NA    NA
## 17           1 2019-01-29    NA    NA    NA    NA    NA
## 18           1 2019-01-30    NA    NA    NA    NA    NA
## 19           1 2019-02-01    NA    NA    NA    NA    NA
## 20           1 2019-02-04    NA    NA    NA    NA    NA
## # … with 1,476 more rows, and 2 more variables:
## #   PM25 <dbl>, SO2 <dbl>
```
…
